[
    {
      "id": 116747,
      "title": "General Issue",
      "ticket_fields": [
        {
          "id": 408382,
          "type": "text",
          "title": "Summary",
          "position": 1,
          "required": true
        },
        {
          "id": 408383,
          "type": "text",
          "title": "Description",
          "position": 2,
          "required": true
        },
        {
          "id": 456811,
          "type": "dropdown",
          "title": "Game",
          "position": 3,
          "required": true,
          "custom_field_options":[
            {
              "name": "A Game of Dwarves",
              "value": "agod",
              "raw_name": "A Game of Dwarves",
              "code":"agod"
            },
            {
              "name": "Ancient Space",
              "value": "ancientspace",
              "raw_name": "Ancient Space",
              "code":"ancientspace"
            }
          ]
        },
        {
          "id":24119456,
          "type": "text",
          "title": "Paradox Account Email",
          "position": 4,
          "required": false
        },
        {
          "id":426643,
          "type": "text",
          "title": "Forum Username",
          "position": 5,
          "required": false
        }
      ]
    },


    {
      "id":117297,
      "title": "Forum / Account Issues",
      "ticket_fields": [
        {
          "id": 408382,
          "type": "text",
          "title": "Summary",
          "position": 1,
          "required": true
        },
        {
          "id": 408383,
          "type": "text",
          "title": "Description",
          "position": 2,
          "required": true
        },
        {
          "id":31827417,
          "type": "dropdown",
          "title": "Requesting help with",
          "position": 3,
          "required": true,
          "custom_field_options":[
            {
              "name": "Can't connect my Steam account",
              "value": "can_t_connect_my_steam_account",
              "raw_name": "Can't connect my Steam account",
              "code":"a1"
            },
            {
              "name": "Can't merge my account",
              "value": "can_t_merge_my_account",
              "raw_name": "Can't merge my account",
              "code":"a2"
            }
          ]
        }

      ]
    }

   
  ]